Causal Inference in R – 5 Expressing causal questions as DAGs
…
Most of the functions in ggdag use dagitty underneath the hood. It’s often useful to call dagitty functions directly.

adjustmentSets(podcast_dag, type = "canonical")

{ humor, mood, prepared }

Using our proposed DAG, let’s simulate some data to see how accounting for the minimal adjustment set might occur in practice.

set.seed(10)
sim_data <- podcast_dag |>
  simulate_data()

sim_data

# A tibble: 500 × 5
     exam  humor   mood podcast prepared
    <dbl>  <dbl>  <dbl>   <dbl>    <dbl>
 1 -0.435  0.263 -0.100  -0.630   1.07  
 2 -0.593  0.317  0.143  -1.55    0.0640
 3  0.786  1.97  -0.591  -0.318  -0.439 
 4 -0.103  2.86  -0.139   1.07    0.754 
 5 -0.614 -2.39   0.702   0.464   0.356 
 6  1.01   1.21   0.910   0.769   0.561 
 7  0.167 -1.37  -0.559  -0.866   0.214 
 8  1.16   0.164 -0.743   0.969  -1.67  
 9  0.650  0.215 -0.248   0.691  -0.303 
10  0.156  0.713  1.19   -1.02   -0.219 
# ℹ 490 more rows
…
